…
distribution = distrib(df=df_total)
```

    ## Joining, by = c("borough", "year")

``` r
distribution
```

    ## # A tibble: 6,722 x 7
    ## # Groups:   borough, year, question [2,400]
    ##    borough  year question    response     respons_count total_count    perc
    ##    <fct>   <dbl> <chr>       <fct>                <int>       <int>   <dbl>
    ##  1 Bronx    2003 age         13 years old             2        1347 1.48e-3
    ##  2 Bronx    2003 age         14 years old           172        1347 1.28e-1
    ##  3 Bronx    2003 age         15 years old           326        1347 2.42e-1
    ##  4 Bronx    2003 age         16 years old           375        1347 2.78e-1
    ##  5 Bronx    2003 age         17 years old           313        1347 2.32e-1
    ##  6 Bronx    2003 age         18 years ol~           158        1347 1.17e-1
    ##  7 Bronx    2003 age         unknown                  1        1347 7.42e-4
    ##  8 Bronx    2003 alcohol_dr~ unknown                834        1347 6.19e-1
    ##  9 Bronx    2003 alcohol_dr~ no/not had ~           444        1347 3.30e-1
    ## 10 Bronx    2003 alcohol_dr~ yes                     69        1347 5.12e-2
    ## # ... with 6,712 more rows
…
   naperc_df%>%filter(year %in% c(2015,2017))
```

    ## # A tibble: 120 x 6
    ## # Groups:   year [2]
    ##     year question                `sum(n)` `n()`  naperc actrsp
    ##    <dbl> <chr>                      <int> <int>   <dbl>  <int>
    ##  1  2015 age                           36  8522 0.00422   8486
    ##  2  2015 alcohol_drugs_sex           7239  8522 0.849     1283
    ##  3  2015 attempted_suicide           1445  8522 0.170     7077
    ##  4  2015 birth_control_use           7309  8522 0.858     1213
    ##  5  2015 bullying_at_school           179  8522 0.0210    8343
    ##  6  2015 bullying_electronically      210  8522 0.0246    8312
    ##  7  2015 carring_weapon               377  8522 0.0442    8145
    ##  8  2015 carring_weapon_school        210  8522 0.0246    8312
    ##  9  2015 condom_use                  7338  8522 0.861     1184
    ## 10  2015 considered_suicide           283  8522 0.0332    8239
    ## # ... with 110 more rows
