Logistic Regression: Model Building
…
###Defining a glmnet object that contains the final lasso model using the best lambda generated
  lasso_logistic = glmnet(
  ###Fixing "current_vaping" as response,whith all the vairble candidtates as pridictors.
    current_vaping ~., data = df, 
    ###Runing for logistics outcom
    family = "binomial",
    ### With the best lambda
    lambda = lasso_temp$lambda.min
    )

#See the accuracy of prediction with this model
lasso_logistic %>% broom::tidy()

## # A tibble: 28 x 5
##    term                                step estimate  lambda dev.ratio
##    <chr>                              <dbl>    <dbl>   <dbl>     <dbl>
##  1 (Intercept)                            1  2.36    0.00500     0.104
##  2 age14 years old                        1  0.0435  0.00500     0.104
##  3 age16 years old                        1 -0.00273 0.00500     0.104
##  4 sexfemale                              1 -0.221   0.00500     0.104
##  5 race7Asian                             1  0.399   0.00500     0.104
##  6 race7Black or African American         1  0.601   0.00500     0.104
##  7 race7Hispanic/Latino                   1 -0.0129  0.00500     0.104
##  8 race7Multiple Races (Non-Hispanic)     1  0.0295  0.00500     0.104
##  9 race7White                             1 -0.342   0.00500     0.104
## 10 sad_hopelessYes                        1 -0.386   0.00500     0.104
## # … with 18 more rows
…
