risky_behavior
…
risky_behavior

Hao Sun

11/30/2019

Data processing

This section collaped the survey data into stat

load("./data/nyc_data.RData")
head(df_total,100)

## # A tibble: 100 x 110
##       id borough  year age   sex   grade race4 race7 stheight stweight
##    <int> <fct>   <dbl> <fct> <fct> <fct> <fct> <fct>    <dbl>    <dbl>
##  1     1 Bronx    2003 16 y… <NA>  9th … Hisp… Hisp…    NA        NA  
##  2     2 Bronx    2003 16 y… <NA>  10th… Blac… Blac…    NA        NA  
##  3     3 Bronx    2003 16 y… <NA>  11th… <NA>  <NA>     NA        NA  
##  4     4 Bronx    2003 18 y… <NA>  12th… Hisp… Hisp…    NA        NA  
##  5     5 Bronx    2003 <NA>  male  11th… Blac… Blac…    NA        NA  
##  6     6 Bronx    2003 14 y… male  9th … Hisp… Hisp…     1.75    102. 
##  7     7 Bronx    2003 14 y… male  9th … Hisp… Hisp…     1.6      48.5
##  8     8 Bronx    2003 14 y… male  9th … All … Asian     1.6      49.9
##  9     9 Bronx    2003 14 y… male  9th … Blac… Blac…     1.78     56.7
## 10    10 Bronx    2003 14 y… male  9th … Hisp… Hisp…     1.65     56.7
## # … with 90 more rows, and 100 more variables: bmi <dbl>, bmipct <dbl>,
## #   sexual_identity <fct>, sexual_contact <fct>, sexual_identity_2 <fct>,
## #   sexual_contact_2 <fct>, seatbelt_use <fct>,
## #   riding_with_drinking_driver <fct>, drinking_and_driving <fct>,
## #   texting_and_driving <fct>, carring_weapon <fct>,
## #   carring_weapon_school <fct>, gun_carrying_past_12_month <fct>,
## #   safety_concerns_at_school <fct>, threatened_at_school <fct>,
## #   physical_fighting <fct>, physical_fighting_at_school <fct>,
## #   forced_sexual_intercourse <fct>, sexual_dating_violence <fct>,
…
nyc_risky<-df_total%>%select(clnames)
####Fill NA
fill_NA = function(vector){
  #### fill in missing values with "virginica" 
    as.factor(coalesce(as.character(vector),"unknown"))
  }
  
##Do everything across column and merge the output into dataset.
nyc_risky_non<-map_df(nyc_risky,fill_NA)
nyc_risky_non%>%mutate(id = as.numeric(as.character(id)),year = as.numeric(as.character(year)))

## # A tibble: 76,219 x 37
##       id borough  year age   sex   grade race7 sexual_identity
##    <dbl> <fct>   <dbl> <fct> <fct> <fct> <fct> <fct>          
##  1     1 Bronx    2003 16 y… unkn… 9th … Hisp… unknown        
##  2     2 Bronx    2003 16 y… unkn… 10th… Blac… unknown        
##  3     3 Bronx    2003 16 y… unkn… 11th… unkn… unknown        
##  4     4 Bronx    2003 18 y… unkn… 12th… Hisp… unknown        
##  5     5 Bronx    2003 unkn… male  11th… Blac… unknown        
##  6     6 Bronx    2003 14 y… male  9th … Hisp… unknown        
##  7     7 Bronx    2003 14 y… male  9th … Hisp… unknown        
##  8     8 Bronx    2003 14 y… male  9th … Asian unknown        
##  9     9 Bronx    2003 14 y… male  9th … Blac… unknown        
## 10    10 Bronx    2003 14 y… male  9th … Hisp… unknown        
## # … with 76,209 more rows, and 29 more variables: sexual_contact <fct>,
## #   sexual_identity_2 <fct>, sexual_contact_2 <fct>, seatbelt_use <fct>,
## #   riding_with_drinking_driver <fct>, drinking_and_driving <fct>,
## #   texting_and_driving <fct>, carring_weapon <fct>,
## #   carring_weapon_school <fct>, gun_carrying_past_12_month <fct>,
## #   safety_concerns_at_school <fct>, threatened_at_school <fct>,
## #   physical_fighting <fct>, physical_fighting_at_school <fct>,
## #   forced_sexual_intercourse <fct>, sexual_dating_violence <fct>,
## #   physical_dating_violence <fct>, bullying_at_school <fct>,
…
nyc_risky_non_stat%>%filter(response == "unknown")%>%group_by(question)%>%summarise(sum(n))

## # A tibble: 34 x 2
##    question                      `sum(n)`
##    <chr>                            <int>
##  1 age                                220
##  2 alcohol_drugs_sex                59209
##  3 birth_control_use                60017
##  4 bullying_at_school               25886
##  5 bullying_electronically          37225
##  6 carring_weapon                    2324
##  7 carring_weapon_school             1764
##  8 condom_use                       59960
##  9 current_sexual_activity          13489
## 10 current_smokeless_tobacco_use    66634
## # … with 24 more rows
…
